simulation/qsim/pll.msim.vcd
$comment
	File created using the following command:
		vcd file pll.msim.vcd -direction
$end
$date
	Tue Jun 29 15:42:55 2021
$end
$version
	ModelSim Version 10.4b
$end
$timescale
	1ps
$end

$scope module dco_vlg_vec_tst $end
$var reg 1 ! borr $end
$var reg 1 " carr $end
$var reg 1 # clock $end
$var wire 1 $ dlipout $end
$var wire 1 % Flag_test $end
$var wire 1 & IDout $end

$scope module i1 $end
$var wire 1 ' gnd $end
$var wire 1 ( vcc $end
$var wire 1 ) unknown $end
$var tri1 1 * devclrn $end
$var tri1 1 + devpor $end
$var tri1 1 , devoe $end
$var wire 1 - ~QUARTUS_CREATED_GND~I_combout $end
$var wire 1 . clock~input_o $end
$var wire 1 / clock~inputCLKENA0_outclk $end
$var wire 1 0 carr~input_o $end
$var wire 1 1 c_edge|Selector1~0_combout $end
$var wire 1 2 c_edge|present_state.final2~q $end
$var wire 1 3 c_edge|Selector0~0_combout $end
$var wire 1 4 c_edge|present_state.idle~q $end
$var wire 1 5 c_edge|next_state.final~0_combout $end
$var wire 1 6 c_edge|present_state.final~q $end
$var wire 1 7 borr~input_o $end
$var wire 1 8 b_edge|Selector1~0_combout $end
$var wire 1 9 b_edge|present_state.final2~q $end
$var wire 1 : b_edge|Selector0~0_combout $end
$var wire 1 ; b_edge|present_state.idle~q $end
$var wire 1 < b_edge|next_state.decision~0_combout $end
$var wire 1 = b_edge|present_state.decision~q $end
$var wire 1 > b_edge|present_state.final~q $end
$var wire 1 ? dff_con|ToggleFF~0_combout $end
$var wire 1 @ dff_con|ToggleFF~q $end
$var wire 1 A dff_con|IDout~combout $end
$var wire 1 B dff_con|dff_control~0_combout $end
$upscope $end
$upscope $end
$enddefinitions $end
#0
$dumpvars
0!
0"
0#
0$
1%
1&
0'
1(
x)
1*
1+
1,
0-
0.
0/
00
01
02
03
04
05
06
07
08
09
0:
0;
0<
0=
0>
1?
0@
0A
0B
$end
#5000
1#
1.
1/
1A
0&
1@
1$
0?
#10000
0#
0.
0/
#15000
1#
1.
1/
0@
0$
1?
#20000
0#
0.
0/
0A
1&
#25000
1#
1.
1/
1A
0&
1@
1$
0?
#30000
0#
0.
0/
#35000
1#
1.
1/
0@
0$
1?
#40000
0#
0.
0/
0A
1&
#45000
1#
1.
1/
1A
0&
1@
1$
0?
#50000
1"
0#
10
0.
0/
15
13
#55000
1#
1.
1/
16
14
0@
0$
1B
05
11
0%
#60000
0#
0.
0/
0A
1&
#65000
1#
1.
1/
1A
0&
06
12
0B
1?
1%
#70000
0#
0.
0/
0A
1&
#75000
1#
1.
1/
1A
0&
1@
1$
0?
#80000
0#
0.
0/
#85000
1#
1.
1/
0@
0$
1?
#90000
0#
0.
0/
0A
1&
#95000
1#
1.
1/
1A
0&
1@
1$
0?
#100000
0"
0#
00
0.
0/
03
01
#105000
1#
1.
1/
04
02
0@
0$
1?
#110000
0#
0.
0/
0A
1&
#115000
1#
1.
1/
1A
0&
1@
1$
0?
#120000
0#
0.
0/
#125000
1#
1.
1/
0@
0$
1?
#130000
0#
0.
0/
0A
1&
#135000
1#
1.
1/
1A
0&
1@
1$
0?
#140000
0#
0.
0/
#145000
1#
1.
1/
0@
0$
1?
#150000
1"
0#
10
0.
0/
0A
1&
#155000
1#
1.
1/
1A
0&
1@
1$
0?
15
13
#160000
0#
0.
0/
#165000
1#
1.
1/
16
14
0@
0$
1B
05
11
0%
#170000
0#
0.
0/
0A
1&
#175000
1#
1.
1/
1A
0&
06
12
0B
1?
1%
#180000
0#
0.
0/
0A
1&
#185000
1#
1.
1/
1A
0&
1@
1$
0?
#190000
0#
0.
0/
#195000
1#
1.
1/
0@
0$
1?
#200000
0"
0#
00
0.
0/
0A
03
01
1&
#205000
1#
1.
1/
1A
0&
04
02
1@
1$
0?
#210000
0#
0.
0/
#215000
1#
1.
1/
0@
0$
1?
#220000
0#
0.
0/
0A
1&
#225000
1#
1.
1/
1A
0&
1@
1$
0?
#230000
0#
0.
0/
#235000
1#
1.
1/
0@
0$
1?
#240000
0#
0.
0/
0A
1&
#245000
1#
1.
1/
1A
0&
1@
1$
0?
#250000
1"
0#
10
0.
0/
15
13
#255000
1#
1.
1/
16
14
0@
0$
1B
05
11
0%
#260000
0#
0.
0/
0A
1&
#265000
1#
1.
1/
1A
0&
06
12
0B
1?
1%
#270000
0#
0.
0/
0A
1&
#275000
1#
1.
1/
1A
0&
1@
1$
0?
#280000
0#
0.
0/
#285000
1#
1.
1/
0@
0$
1?
#290000
0#
0.
0/
0A
1&
#295000
1#
1.
1/
1A
0&
1@
1$
0?
#300000
0"
0#
00
0.
0/
03
01
#305000
1#
1.
1/
04
02
0@
0$
1?
#310000
0#
0.
0/
0A
1&
#315000
1#
1.
1/
1A
0&
1@
1$
0?
#320000
0#
0.
0/
#325000
1#
1.
1/
0@
0$
1?
#330000
0#
0.
0/
0A
1&
#335000
1#
1.
1/
1A
0&
1@
1$
0?
#340000
0#
0.
0/
#345000
1#
1.
1/
0@
0$
1?
#350000
1"
0#
10
0.
0/
0A
1&
#355000
1#
1.
1/
1A
0&
1@
1$
0?
15
13
#360000
0#
0.
0/
#365000
1#
1.
1/
16
14
0@
0$
1B
05
11
0%
#370000
0#
0.
0/
0A
1&
#375000
1#
1.
1/
1A
0&
06
12
0B
1?
1%
#380000
0#
0.
0/
0A
1&
#385000
1#
1.
1/
1A
0&
1@
1$
0?
#390000
0#
0.
0/
#395000
1#
1.
1/
0@
0$
1?
#400000
0"
0#
00
0.
0/
0A
03
01
1&
#405000
1#
1.
1/
1A
0&
04
02
1@
1$
0?
#410000
0#
0.
0/
#415000
1#
1.
1/
0@
0$
1?
#420000
0#
0.
0/
0A
1&
#425000
1#
1.
1/
1A
0&
1@
1$
0?
#430000
0#
0.
0/
#435000
1#
1.
1/
0@
0$
1?
#440000
0#
0.
0/
0A
1&
#445000
1#
1.
1/
1A
0&
1@
1$
0?
#450000
1"
0#
10
0.
0/
15
13
#455000
1#
1.
1/
16
14
0@
0$
1B
05
11
0%
#460000
0#
0.
0/
0A
1&
#465000
1#
1.
1/
1A
0&
06
12
0B
1?
1%
#470000
0#
0.
0/
0A
1&
#475000
1#
1.
1/
1A
0&
1@
1$
0?
#480000
0#
0.
0/
#485000
1#
1.
1/
0@
0$
1?
#490000
0#
0.
0/
0A
1&
#495000
1#
1.
1/
1A
0&
1@
1$
0?
#500000
0"
0#
00
0.
0/
03
01
#505000
1#
1.
1/
04
02
0@
0$
1?
#510000
0#
0.
0/
0A
1&
#515000
1#
1.
1/
1A
0&
1@
1$
0?
#520000
0#
0.
0/
#525000
1#
1.
1/
0@
0$
1?
#530000
0#
0.
0/
0A
1&
#535000
1#
1.
1/
1A
0&
1@
1$
0?
#540000
0#
0.
0/
#545000
1#
1.
1/
0@
0$
1?
#550000
1"
0#
10
0.
0/
0A
1&
#555000
1#
1.
1/
1A
0&
1@
1$
0?
15
13
#560000
0#
0.
0/
#565000
1#
1.
1/
16
14
0@
0$
1B
05
11
0%
#570000
0#
0.
0/
0A
1&
#575000
1#
1.
1/
1A
0&
06
12
0B
1?
1%
#580000
0#
0.
0/
0A
1&
#585000
1#
1.
1/
1A
0&
1@
1$
0?
#590000
0#
0.
0/
#595000
1#
1.
1/
0@
0$
1?
#600000
0"
0#
00
0.
0/
0A
03
01
1&
#605000
1#
1.
1/
1A
0&
04
02
1@
1$
0?
#610000
0#
0.
0/
#615000
1#
1.
1/
0@
0$
1?
#620000
0#
0.
0/
0A
1&
#625000
1#
1.
1/
1A
0&
1@
1$
0?
#630000
0#
0.
0/
#635000
1#
1.
1/
0@
0$
1?
#640000
0#
0.
0/
0A
1&
#645000
1#
1.
1/
1A
0&
1@
1$
0?
#650000
1"
0#
10
0.
0/
15
13
#655000
1#
1.
1/
16
14
0@
0$
1B
05
11
0%
#660000
0#
0.
0/
0A
1&
#665000
1#
1.
1/
1A
0&
06
12
0B
1?
1%
#670000
0#
0.
0/
0A
1&
#675000
1#
1.
1/
1A
0&
1@
1$
0?
#680000
0#
0.
0/
#685000
1#
1.
1/
0@
0$
1?
#690000
0#
0.
0/
0A
1&
#695000
1#
1.
1/
1A
0&
1@
1$
0?
#700000
0"
0#
00
0.
0/
03
01
#705000
1#
1.
1/
04
02
0@
0$
1?
#710000
0#
0.
0/
0A
1&
#715000
1#
1.
1/
1A
0&
1@
1$
0?
#720000
0#
0.
0/
#725000
1#
1.
1/
0@
0$
1?
#730000
0#
0.
0/
0A
1&
#735000
1#
1.
1/
1A
0&
1@
1$
0?
#740000
0#
0.
0/
#745000
1#
1.
1/
0@
0$
1?
#750000
1"
0#
10
0.
0/
0A
1&
#755000
1#
1.
1/
1A
0&
1@
1$
0?
15
13
#760000
0#
0.
0/
#765000
1#
1.
1/
16
14
0@
0$
1B
05
11
0%
#770000
0#
0.
0/
0A
1&
#775000
1#
1.
1/
1A
0&
06
12
0B
1?
1%
#780000
0#
0.
0/
0A
1&
#785000
1#
1.
1/
1A
0&
1@
1$
0?
#790000
0#
0.
0/
#795000
1#
1.
1/
0@
0$
1?
#800000
0"
0#
00
0.
0/
0A
03
01
1&
#805000
1#
1.
1/
1A
0&
04
02
1@
1$
0?
#810000
0#
0.
0/
#815000
1#
1.
1/
0@
0$
1?
#820000
0#
0.
0/
0A
1&
#825000
1#
1.
1/
1A
0&
1@
1$
0?
#830000
0#
0.
0/
#835000
1#
1.
1/
0@
0$
1?
#840000
0#
0.
0/
0A
1&
#845000
1#
1.
1/
1A
0&
1@
1$
0?
#850000
1"
0#
10
0.
0/
15
13
#855000
1#
1.
1/
16
14
0@
0$
1B
05
11
0%
#860000
0#
0.
0/
0A
1&
#865000
1#
1.
1/
1A
0&
06
12
0B
1?
1%
#870000
0#
0.
0/
0A
1&
#875000
1#
1.
1/
1A
0&
1@
1$
0?
#880000
0#
0.
0/
#885000
1#
1.
1/
0@
0$
1?
#890000
0#
0.
0/
0A
1&
#895000
1#
1.
1/
1A
0&
1@
1$
0?
#900000
0"
0#
00
0.
0/
03
01
#905000
1#
1.
1/
04
02
0@
0$
1?
#910000
0#
0.
0/
0A
1&
#915000
1#
1.
1/
1A
0&
1@
1$
0?
#920000
0#
0.
0/
#925000
1#
1.
1/
0@
0$
1?
#930000
0#
0.
0/
0A
1&
#935000
1#
1.
1/
1A
0&
1@
1$
0?
#940000
0#
0.
0/
#945000
1#
1.
1/
0@
0$
1?
#950000
1"
0#
10
0.
0/
0A
1&
#955000
1#
1.
1/
1A
0&
1@
1$
0?
15
13
#960000
0#
0.
0/
#965000
1#
1.
1/
16
14
0@
0$
1B
05
11
0%
#970000
0#
0.
0/
0A
1&
#975000
1#
1.
1/
1A
0&
06
12
0B
1?
1%
#980000
0#
0.
0/
0A
1&
#985000
1#
1.
1/
1A
0&
1@
1$
0?
#990000
0#
0.
0/
#995000
1#
1.
1/
0@
0$
1?
