simulation/qsim/trabalho-pll_V3.msim.vcd
$comment
	File created using the following command:
		vcd file trabalho-pll_V3.msim.vcd -direction
$end
$date
	Mon Jul 05 19:21:08 2021
$end
$version
	ModelSim Version 10.4b
$end
$timescale
	1ps
$end

$scope module pfd_vlg_vec_tst $end
$var reg 1 ! a $end
$var reg 1 " b $end
$var wire 1 # down $end
$var wire 1 $ up $end

$scope module i1 $end
$var wire 1 % gnd $end
$var wire 1 & vcc $end
$var wire 1 ' unknown $end
$var tri1 1 ( devclrn $end
$var tri1 1 ) devpor $end
$var tri1 1 * devoe $end
$var wire 1 + ~QUARTUS_CREATED_GND~I_combout $end
$var wire 1 , a~input_o $end
$var wire 1 - d_ff_1_map_ports|q~feeder_combout $end
$var wire 1 . b~input_o $end
$var wire 1 / d_ff_2_map_ports|q~feeder_combout $end
$var wire 1 0 d_ff_2_map_ports|q~q $end
$var wire 1 1 srst~combout $end
$var wire 1 2 d_ff_1_map_ports|q~q $end
$var wire 1 3 d_ff_2_map_ports|q~DUPLICATE_q $end
$upscope $end
$upscope $end
$enddefinitions $end
#0
$dumpvars
1!
0"
0#
0$
0%
1&
x'
1(
1)
1*
0+
1,
1-
0.
1/
00
01
02
03
$end
#10000
0!
0,
#20000
1"
1.
10
13
1#
#30000
1!
1,
12
1$
11
00
02
03
0#
0$
01
#40000
0"
0.
#50000
0!
0,
#60000
1"
1.
10
13
1#
#70000
1!
1,
12
1$
11
00
02
03
0#
0$
01
#80000
0"
0.
#90000
0!
0,
#100000
1"
1.
10
13
1#
#110000
1!
1,
12
1$
11
00
02
03
0#
0$
01
#120000
0"
0.
#130000
0!
0,
#140000
1"
1.
10
13
1#
#150000
1!
1,
12
1$
11
00
02
03
0#
0$
01
#160000
0"
0.
#170000
0!
0,
#180000
1"
1.
10
13
1#
#190000
1!
1,
12
1$
11
00
02
03
0#
0$
01
#200000
0"
0.
#210000
0!
0,
#220000
1"
1.
10
13
1#
#230000
1!
1,
12
1$
11
00
02
03
0#
0$
01
#240000
0"
0.
#250000
0!
0,
#260000
1"
1.
10
13
1#
#270000
1!
1,
12
1$
11
00
02
03
0#
0$
01
#280000
0"
0.
#290000
0!
0,
#300000
1"
1.
10
13
1#
#310000
1!
1,
12
1$
11
00
02
03
0#
0$
01
#320000
0"
0.
#330000
0!
0,
#340000
1"
1.
10
13
1#
#350000
1!
1,
12
1$
11
00
02
03
0#
0$
01
#360000
0"
0.
#370000
0!
0,
#380000
1"
1.
10
13
1#
#390000
1!
1,
12
1$
11
00
02
03
0#
0$
01
#400000
0"
0.
#410000
0!
0,
#420000
1"
1.
10
13
1#
#430000
1!
1,
12
1$
11
00
02
03
0#
0$
01
#440000
0"
0.
#450000
0!
0,
#460000
1"
1.
10
13
1#
#470000
1!
1,
12
1$
11
00
02
03
0#
0$
01
#480000
0"
0.
#490000
0!
0,
#500000
1"
1.
10
13
1#
#510000
1!
1,
12
1$
11
00
02
03
0#
0$
01
#520000
0"
0.
#530000
0!
0,
#540000
1"
1.
10
13
1#
#550000
1!
1,
12
1$
11
00
02
03
0#
0$
01
#560000
0"
0.
#570000
0!
0,
#580000
1"
1.
10
13
1#
#590000
1!
1,
12
1$
11
00
02
03
0#
0$
01
#600000
0"
0.
#610000
0!
0,
#620000
1"
1.
10
13
1#
#630000
1!
1,
12
1$
11
00
02
03
0#
0$
01
#640000
0"
0.
#650000
0!
0,
#660000
1"
1.
10
13
1#
#670000
1!
1,
12
1$
11
00
02
03
0#
0$
01
#680000
0"
0.
#690000
0!
0,
#700000
1"
1.
10
13
1#
#710000
1!
1,
12
1$
11
00
02
03
0#
0$
01
#720000
0"
0.
#730000
0!
0,
#740000
1"
1.
10
13
1#
#750000
1!
1,
12
1$
11
00
02
03
0#
0$
01
#760000
0"
0.
#770000
0!
0,
#780000
1"
1.
10
13
1#
#790000
1!
1,
12
1$
11
00
02
03
0#
0$
01
#800000
0"
0.
#810000
0!
0,
#820000
1"
1.
10
13
1#
#830000
1!
1,
12
1$
11
00
02
03
0#
0$
01
#840000
0"
0.
#850000
0!
0,
#860000
1"
1.
10
13
1#
#870000
1!
1,
12
1$
11
00
02
03
0#
0$
01
#880000
0"
0.
#890000
0!
0,
#900000
1"
1.
10
13
1#
#910000
1!
1,
12
1$
11
00
02
03
0#
0$
01
#920000
0"
0.
#930000
0!
0,
#940000
1"
1.
10
13
1#
#950000
1!
1,
12
1$
11
00
02
03
0#
0$
01
#960000
0"
0.
#970000
0!
0,
#980000
1"
1.
10
13
1#
#990000
1!
1,
12
1$
11
00
02
03
0#
0$
01
