simulation/qsim/trabalho-pll_V3.msim.vcd
$comment
	File created using the following command:
		vcd file trabalho-pll_V3.msim.vcd -direction
$end
$date
	Sun Sep 05 18:57:33 2021
$end
$version
	ModelSim Version 10.4b
$end
$timescale
	1ps
$end

$scope module pfd_vlg_vec_tst $end
$var reg 1 ! a $end
$var reg 1 " b $end
$var wire 1 # out_down $end
$var wire 1 $ out_up $end

$scope module i1 $end
$var wire 1 % gnd $end
$var wire 1 & vcc $end
$var wire 1 ' unknown $end
$var tri1 1 ( devclrn $end
$var tri1 1 ) devpor $end
$var tri1 1 * devoe $end
$var wire 1 + ~QUARTUS_CREATED_GND~I_combout $end
$var wire 1 , a~input_o $end
$var wire 1 - d_ff_1_map_ports|q~feeder_combout $end
$var wire 1 . b~input_o $end
$var wire 1 / d_ff_2_map_ports|q~feeder_combout $end
$var wire 1 0 d_ff_2_map_ports|q~q $end
$var wire 1 1 srst~combout $end
$var wire 1 2 d_ff_1_map_ports|q~q $end
$var wire 1 3 d_ff_2_map_ports|q~DUPLICATE_q $end
$upscope $end
$upscope $end
$enddefinitions $end
#0
$dumpvars
0!
0"
0#
0$
0%
1&
x'
1(
1)
1*
0+
0,
1-
0.
1/
00
01
02
03
$end
#50000
1!
1,
12
1$
#52632
1"
1.
10
13
1#
11
00
02
03
0#
0$
01
#100000
0!
0,
#105263
0"
0.
#150000
1!
1,
12
1$
#157895
1"
1.
10
13
1#
11
00
02
03
0#
0$
01
#200000
0!
0,
#210526
0"
0.
#250000
1!
1,
12
1$
#263158
1"
1.
10
13
1#
11
00
02
03
0#
0$
01
#300000
0!
0,
#315789
0"
0.
#350000
1!
1,
12
1$
#368421
1"
1.
10
13
1#
11
00
02
03
0#
0$
01
#400000
0!
0,
#421052
0"
0.
#450000
1!
1,
12
1$
#473684
1"
1.
10
13
1#
11
00
02
03
0#
0$
01
#500000
0!
0,
#526315
0"
0.
#550000
1!
1,
12
1$
#578947
1"
1.
10
13
1#
11
00
02
03
0#
0$
01
#600000
0!
0,
#631578
0"
0.
#650000
1!
1,
12
1$
#684210
1"
1.
10
13
1#
11
00
02
03
0#
0$
01
#700000
0!
0,
#736841
0"
0.
#750000
1!
1,
12
1$
#789473
1"
1.
10
13
1#
11
00
02
03
0#
0$
01
#800000
0!
0,
#842104
0"
0.
